^C:\USERS\PATRICK\DOWNLOADS\GLFW-3.2.1\CMAKELISTS.TXT
C:\PROGRAM FILES\CMAKE\SHARE\CMAKE-3.6\MODULES\CMAKEDETERMINESYSTEM.CMAKE
C:\PROGRAM FILES\CMAKE\SHARE\CMAKE-3.6\MODULES\CMAKESYSTEM.CMAKE.IN
C:\USERS\PATRICK\DOWNLOADS\GLFW-3.2.1\BUILD\CMAKEFILES\3.6.2\CMAKESYSTEM.CMAKE
C:\PROGRAM FILES\CMAKE\SHARE\CMAKE-3.6\MODULES\CMAKESYSTEMSPECIFICINITIALIZE.CMAKE
C:\PROGRAM FILES\CMAKE\SHARE\CMAKE-3.6\MODULES\CMAKEDETERMINECCOMPILER.CMAKE
C:\PROGRAM FILES\CMAKE\SHARE\CMAKE-3.6\MODULES\CMAKEDETERMINECOMPILER.CMAKE
C:\PROGRAM FILES\CMAKE\SHARE\CMAKE-3.6\MODULES\CMAKEDETERMINECOMPILERID.CMAKE
C:\PROGRAM FILES\CMAKE\SHARE\CMAKE-3.6\MODULES\CMAKECOMPILERIDDETECTION.CMAKE
C:\PROGRAM FILES\CMAKE\SHARE\CMAKE-3.6\MODULES\CMAKEPARSEARGUMENTS.CMAKE
C:\PROGRAM FILES\CMAKE\SHARE\CMAKE-3.6\MODULES\COMPILER\ADSP-DETERMINECOMPILER.CMAKE
C:\PROGRAM FILES\CMAKE\SHARE\CMAKE-3.6\MODULES\COMPILER\ARMCC-DETERMINECOMPILER.CMAKE
C:\PROGRAM FILES\CMAKE\SHARE\CMAKE-3.6\MODULES\COMPILER\APPLECLANG-DETERMINECOMPILER.CMAKE
C:\PROGRAM FILES\CMAKE\SHARE\CMAKE-3.6\MODULES\COMPILER\CLANG-DETERMINECOMPILERINTERNAL.CMAKE
C:\PROGRAM FILES\CMAKE\SHARE\CMAKE-3.6\MODULES\COMPILER\BORLAND-DETERMINECOMPILER.CMAKE
C:\PROGRAM FILES\CMAKE\SHARE\CMAKE-3.6\MODULES\COMPILER\BRUCE-C-DETERMINECOMPILER.CMAKE
C:\PROGRAM FILES\CMAKE\SHARE\CMAKE-3.6\MODULES\COMPILER\CLANG-DETERMINECOMPILER.CMAKE
C:\PROGRAM FILES\CMAKE\SHARE\CMAKE-3.6\MODULES\COMPILER\COMPAQ-C-DETERMINECOMPILER.CMAKE
C:\PROGRAM FILES\CMAKE\SHARE\CMAKE-3.6\MODULES\COMPILER\CRAY-DETERMINECOMPILER.CMAKE
C:\PROGRAM FILES\CMAKE\SHARE\CMAKE-3.6\MODULES\COMPILER\EMBARCADERO-DETERMINECOMPILER.CMAKE
C:\PROGRAM FILES\CMAKE\SHARE\CMAKE-3.6\MODULES\COMPILER\FUJITSU-DETERMINECOMPILER.CMAKE
C:\PROGRAM FILES\CMAKE\SHARE\CMAKE-3.6\MODULES\COMPILER\GHS-DETERMINECOMPILER.CMAKE
C:\PROGRAM FILES\CMAKE\SHARE\CMAKE-3.6\MODULES\COMPILER\GNU-DETERMINECOMPILER.CMAKE
C:\PROGRAM FILES\CMAKE\SHARE\CMAKE-3.6\MODULES\COMPILER\HP-C-DETERMINECOMPILER.CMAKE
C:\PROGRAM FILES\CMAKE\SHARE\CMAKE-3.6\MODULES\COMPILER\IAR-DETERMINECOMPILER.CMAKE
C:\PROGRAM FILES\CMAKE\SHARE\CMAKE-3.6\MODULES\COMPILER\INTEL-DETERMINECOMPILER.CMAKE
C:\PROGRAM FILES\CMAKE\SHARE\CMAKE-3.6\MODULES\COMPILER\MIPSPRO-DETERMINECOMPILER.CMAKE
C:\PROGRAM FILES\CMAKE\SHARE\CMAKE-3.6\MODULES\COMPILER\MSVC-DETERMINECOMPILER.CMAKE
C:\PROGRAM FILES\CMAKE\SHARE\CMAKE-3.6\MODULES\COMPILER\OPENWATCOM-DETERMINECOMPILER.CMAKE
C:\PROGRAM FILES\CMAKE\SHARE\CMAKE-3.6\MODULES\COMPILER\PGI-DETERMINECOMPILER.CMAKE
C:\PROGRAM FILES\CMAKE\SHARE\CMAKE-3.6\MODULES\COMPILER\PATHSCALE-DETERMINECOMPILER.CMAKE
C:\PROGRAM FILES\CMAKE\SHARE\CMAKE-3.6\MODULES\COMPILER\SCO-DETERMINECOMPILER.CMAKE
C:\PROGRAM FILES\CMAKE\SHARE\CMAKE-3.6\MODULES\COMPILER\SDCC-C-DETERMINECOMPILER.CMAKE
C:\PROGRAM FILES\CMAKE\SHARE\CMAKE-3.6\MODULES\COMPILER\SUNPRO-C-DETERMINECOMPILER.CMAKE
C:\PROGRAM FILES\CMAKE\SHARE\CMAKE-3.6\MODULES\COMPILER\TI-DETERMINECOMPILER.CMAKE
C:\PROGRAM FILES\CMAKE\SHARE\CMAKE-3.6\MODULES\COMPILER\TINYCC-C-DETERMINECOMPILER.CMAKE
C:\PROGRAM FILES\CMAKE\SHARE\CMAKE-3.6\MODULES\COMPILER\VISUALAGE-C-DETERMINECOMPILER.CMAKE
C:\PROGRAM FILES\CMAKE\SHARE\CMAKE-3.6\MODULES\COMPILER\IBMCPP-C-DETERMINEVERSIONINTERNAL.CMAKE
C:\PROGRAM FILES\CMAKE\SHARE\CMAKE-3.6\MODULES\COMPILER\WATCOM-DETERMINECOMPILER.CMAKE
C:\PROGRAM FILES\CMAKE\SHARE\CMAKE-3.6\MODULES\COMPILER\XL-C-DETERMINECOMPILER.CMAKE
C:\PROGRAM FILES\CMAKE\SHARE\CMAKE-3.6\MODULES\COMPILER\ZOS-C-DETERMINECOMPILER.CMAKE
C:\PROGRAM FILES\CMAKE\SHARE\CMAKE-3.6\MODULES\COMPILERID\VS-10.VCXPROJ.IN
C:\PROGRAM FILES\CMAKE\SHARE\CMAKE-3.6\MODULES\CMAKEFINDBINUTILS.CMAKE
C:\PROGRAM FILES\CMAKE\SHARE\CMAKE-3.6\MODULES\CMAKECCOMPILER.CMAKE.IN
C:\USERS\PATRICK\DOWNLOADS\GLFW-3.2.1\BUILD\CMAKEFILES\3.6.2\CMAKECCOMPILER.CMAKE
C:\PROGRAM FILES\CMAKE\SHARE\CMAKE-3.6\MODULES\CMAKESYSTEMSPECIFICINFORMATION.CMAKE
C:\PROGRAM FILES\CMAKE\SHARE\CMAKE-3.6\MODULES\CMAKEGENERICSYSTEM.CMAKE
C:\PROGRAM FILES\CMAKE\SHARE\CMAKE-3.6\MODULES\PLATFORM\WINDOWS.CMAKE
C:\PROGRAM FILES\CMAKE\SHARE\CMAKE-3.6\MODULES\PLATFORM\WINDOWSPATHS.CMAKE
C:\PROGRAM FILES\CMAKE\SHARE\CMAKE-3.6\MODULES\CMAKECINFORMATION.CMAKE
C:\PROGRAM FILES\CMAKE\SHARE\CMAKE-3.6\MODULES\CMAKELANGUAGEINFORMATION.CMAKE
C:\PROGRAM FILES\CMAKE\SHARE\CMAKE-3.6\MODULES\PLATFORM\WINDOWS-MSVC-C.CMAKE
C:\PROGRAM FILES\CMAKE\SHARE\CMAKE-3.6\MODULES\PLATFORM\WINDOWS-MSVC.CMAKE
C:\PROGRAM FILES\CMAKE\SHARE\CMAKE-3.6\MODULES\CMAKEDETERMINERCCOMPILER.CMAKE
C:\PROGRAM FILES\CMAKE\SHARE\CMAKE-3.6\MODULES\CMAKERCCOMPILER.CMAKE.IN
C:\USERS\PATRICK\DOWNLOADS\GLFW-3.2.1\BUILD\CMAKEFILES\3.6.2\CMAKERCCOMPILER.CMAKE
C:\PROGRAM FILES\CMAKE\SHARE\CMAKE-3.6\MODULES\CMAKERCINFORMATION.CMAKE
C:\PROGRAM FILES\CMAKE\SHARE\CMAKE-3.6\MODULES\CMAKETESTRCCOMPILER.CMAKE
C:\PROGRAM FILES\CMAKE\SHARE\CMAKE-3.6\MODULES\CMAKECOMMONLANGUAGEINCLUDE.CMAKE
C:\PROGRAM FILES\CMAKE\SHARE\CMAKE-3.6\MODULES\CMAKETESTCCOMPILER.CMAKE
C:\PROGRAM FILES\CMAKE\SHARE\CMAKE-3.6\MODULES\CMAKETESTCOMPILERCOMMON.CMAKE
C:\PROGRAM FILES\CMAKE\SHARE\CMAKE-3.6\MODULES\CMAKEDETERMINECOMPILERABI.CMAKE
C:\PROGRAM FILES\CMAKE\SHARE\CMAKE-3.6\MODULES\CMAKEPARSEIMPLICITLINKINFO.CMAKE
C:\PROGRAM FILES\CMAKE\SHARE\CMAKE-3.6\MODULES\CMAKECCOMPILERABI.C
C:\PROGRAM FILES\CMAKE\SHARE\CMAKE-3.6\MODULES\CMAKEDETERMINECOMPILEFEATURES.CMAKE
C:\PROGRAM FILES\CMAKE\SHARE\CMAKE-3.6\MODULES\FINDTHREADS.CMAKE
C:\PROGRAM FILES\CMAKE\SHARE\CMAKE-3.6\MODULES\CHECKLIBRARYEXISTS.CMAKE
C:\PROGRAM FILES\CMAKE\SHARE\CMAKE-3.6\MODULES\CHECKSYMBOLEXISTS.CMAKE
C:\PROGRAM FILES\CMAKE\SHARE\CMAKE-3.6\MODULES\CHECKINCLUDEFILE.CMAKE
C:\PROGRAM FILES\CMAKE\SHARE\CMAKE-3.6\MODULES\CHECKINCLUDEFILE.C.IN
C:\PROGRAM FILES\CMAKE\SHARE\CMAKE-3.6\MODULES\FINDPACKAGEHANDLESTANDARDARGS.CMAKE
C:\PROGRAM FILES\CMAKE\SHARE\CMAKE-3.6\MODULES\FINDPACKAGEMESSAGE.CMAKE
C:\USERS\PATRICK\DOWNLOADS\GLFW-3.2.1\CMAKE\MODULES\FINDVULKAN.CMAKE
C:\PROGRAM FILES\CMAKE\SHARE\CMAKE-3.6\MODULES\FINDDOXYGEN.CMAKE
C:\PROGRAM FILES\CMAKE\SHARE\CMAKE-3.6\MODULES\CMAKEPACKAGECONFIGHELPERS.CMAKE
C:\PROGRAM FILES\CMAKE\SHARE\CMAKE-3.6\MODULES\WRITEBASICCONFIGVERSIONFILE.CMAKE
C:\USERS\PATRICK\DOWNLOADS\GLFW-3.2.1\SRC\GLFW3CONFIG.CMAKE.IN
C:\PROGRAM FILES\CMAKE\SHARE\CMAKE-3.6\MODULES\BASICCONFIGVERSION-SAMEMAJORVERSION.CMAKE.IN
C:\USERS\PATRICK\DOWNLOADS\GLFW-3.2.1\SRC\GLFW_CONFIG.H.IN
C:\USERS\PATRICK\DOWNLOADS\GLFW-3.2.1\SRC\GLFW3.PC.IN
C:\USERS\PATRICK\DOWNLOADS\GLFW-3.2.1\CMAKE_UNINSTALL.CMAKE.IN
